Probability of Winning an NBA Game: A Minute-by-Minute Breakdown
…
webpage <- read_html("https://www.espn.com/nba/playbyplay?gameId=401248438")
times = webpage %>%
  html_nodes(".time-stamp") %>%
  html_text()

scores = webpage %>%
  html_nodes(".combined-score") %>%
  html_text()

tibble(times = times,
       scores = scores)

## # A tibble: 449 x 2
##    times scores
##    <chr> <chr> 
##  1 12:00 0 - 0 
##  2 11:48 2 - 0 
##  3 11:25 2 - 2 
##  4 11:11 2 - 2 
##  5 11:10 2 - 2 
##  6 11:02 2 - 2 
##  7 11:01 2 - 2 
##  8 10:53 2 - 2 
##  9 10:52 2 - 2 
## 10 10:39 2 - 2 
## # … with 439 more rows
…
Note that there is an inherent symmetry in the data. That is, if a team is down 5 points, then equivalently the other team is up 5 points. As a result, if the probability that a team wins a game when they are down \(Y\) points with \(X\) minutes left is \(p_{xy}\), then the probability that a team wins a game when they are up \(Y\) points with \(X\) minutes left is \(1-p_{xy}\). Therefore, I only need to calculate the probabilities for half of the scenarios. It also implies that if the score is tied at any point during the game, the probability that either team wins must be \(0.5\), so I can drop all the rows in the play-by-play where the score is tied.

In the play-by-play data, they repeat a row for the score at the beginning and end of each quarter, so I remove those rows to avoid double counting.

For every row in the play-by-play data, I add a column representing whether the team that was behind ended up winning.

I merge overtime probabilities into the 4th quarter. Each overtime period is 5 minutes, so I’m assuming that each 5 minute overtime period can be aggregated into the last 5 minutes of the 4th quarter. This is primarily for the purpose of a simpler visualization.

I summarize the proportion of times a team ended up winning the game over each minute of the game and score margin. This is the empirical estimate of the probability.

I went back and forth a few times on how to define the “minute.” If there are 11:45 seconds left in the game, should I say there are 12 minutes left or 11 minutes left? There are advantages to both, but in the end, I went with 11 minutes. I figured that if I was watching a game, it’s easier for me to look up the probabilities by just taking the number of the minute, rather than taking the additional step of rounding it.

In the end, I get a data frame that looks like the following. Every row corresponds to the time left down to the nearest minute (quarter/minute), the score margin (diff), the empirical probability that the team ended up winning based on the historical proportion (prob_win), and the sample size, i.e the number of games where a team has faced this score margin at the specified time (n).

## # A tibble: 3,380 x 5
##    quarter minute  diff prob_win     n
##    <fct>    <dbl> <dbl>    <dbl> <int>
##  1 1            0   -26   0          1
##  2 1            0   -25   0          1
##  3 1            0   -24   0          2
##  4 1            0   -23   0          5
##  5 1            0   -22   0.143     14
##  6 1            0   -21   0.0667    15
##  7 1            0   -20   0.111     27
##  8 1            0   -19   0.0714    28
##  9 1            0   -18   0.0976    41
## 10 1            0   -17   0.0938    64
## # … with 3,370 more rows
…
